{
  "component": "blog",
  "props": {
    "errors": {},
    "locale": "fa",
    "fallback_locale": "fa",
    "posts": {
      "current_page": 1,
      "data": [
        {
          "id": 11793,
          "slug": "club-house-live-streaming-education",
          "name": "Clubhouse Live Streaming Training",
          "image": "https://blog.mymember.shop/wp-content/uploads/2023/06/Clubhouse-live-training.jpg",
          "thumbnail": "https://blog.mymember.shop/wp-content/uploads/2023/06/Clubhouse-live-training-386x207.jpg",
          "alt_text": "Clubhouse Live Streaming Tutorial",
          "created_at": "2023-06-25T07:42:27.000000Z",
          "updated_at": "2023-06-25T07:42:27.000000Z"
        },
        {
          "id": 11788,
          "slug": "Telegram-Training-Course",
          "name": "Telegram training course | more than 30 hours of Telegram training",
          "image": "https://blog.mymember.shop/wp-content/uploads/2023/06/Dore-Amouzshi-Telegram.jpg.png",
          "thumbnail": "https://blog.mymember.shop/wp-content/uploads/2023/06/Dore-Amouzshi-Telegram.jpg-386x217.png",
          "alt_text": "Telegram training course",
          "created_at": "2023-06-24T16:07:15.000000Z",
          "updated_at": "2023-06-24T16:07:15.000000Z"
        },
        {
          "id": 11773,
          "slug": "sms-authentication",
          "name": "SMS authentication",
          "image": "https://blog.mymember.shop/wp-content/uploads/2023/06/sms-authentication-two-factor-authentication-based-on-one-time-password-and-sms.jpg ",
          "thumbnail": "https://blog.mymember.shop/wp-content/uploads/2023/06/sms-authentication-two-factor-authentication-based-on-one-time-password-and-sms-386x232 .jpg",
          "alt_text": "SMS authentication - two-factor authentication based on one-time password and SMS",
          "created_at": "2023-06-24T08:37:32.000000Z",
          "updated_at": "2023-06-24T08:37:32.000000Z"
        },
        {
          "id": 11710,
          "slug": "introducing-the-best-games-for-android",
          "name": "Introducing the best Android games",
          "image": "https://blog.mymember.shop/wp-content/uploads/2023/06/the-best-Android-games.jpg",
          "thumbnail": "https://blog.mymember.shop/wp-content/uploads/2023/06/the-best-Android-games-386x217.jpg",
          "alt_text": "Introducing the best Android games",
          "created_at": "2023-06-21T09:10:00.000000Z",
          "updated_at": "2023-06-22T07:50:38.000000Z"
        },
        {
          "id": 11710,
          "slug": "introducing-the-best-games-for-android",
          "name": "Introducing the best Android games",
          "image": "https://blog.mymember.shop/wp-content/uploads/2023/06/the-best-Android-games.jpg",
          "thumbnail": "https://blog.mymember.shop/wp-content/uploads/2023/06/the-best-Android-games-386x217.jpg",
          "alt_text": "Introducing the best Android games",
          "created_at": "2023-06-21T09:10:00.000000Z",
          "updated_at": "2023-06-22T07:50:38.000000Z"
        },
        {
          "id": 11678,
          "slug": "best-games-of-March-1401",
          "name": "The best games of March 1401",
          "image": "https://blog.mymember.shop/wp-content/uploads/2023/06/the-best-2023-March-games.jpg",
          "thumbnail": "https://blog.mymember.shop/wp-content/uploads/2023/06/the-best-2023-March-games-386x217.jpg",
          "alt_text": "The best games of March 1401",
          "created_at": "2023-06-20T10:54:36.000000Z",
          "updated_at": "2023-06-22T07:56:56.000000Z"
        },
        {
          "id": 11662,
          "slug": "word-to-pdf-converting-training-on-phone",
          "name": "Learning to convert word to PDF on the phone",
          "image": "https://blog.mymember.shop/wp-content/uploads/2023/06/how-to-Convert-Word-to-PDF-on-phone.jpg",
          "thumbnail": "https://blog.mymember.shop/wp-content/uploads/2023/06/how-to-Convert-Word-to-PDF-on-phone-386x217.jpg",
          "alt_text": "Learning to convert word to PDF on the phone",
          "created_at": "2023-06-18T14:48:16.000000Z",
          "updated_at": "2023-06-22T07:59:52.000000Z"
        },
        {
          "id": 11650,
          "slug": "Learning-to-make-a-motion-logo-with-a-phone",
          "name": "Learning how to make a motion logo with a phone",
          "image": "https://blog.mymember.shop/wp-content/uploads/2023/06/how-to-make-a-motion-logo-with-a-phone.jpg",
          "thumbnail": "https://blog.mymember.shop/wp-content/uploads/2023/06/how-to-make-a-motion-logo-with-a-phone-386x217.jpg",
          "alt_text": "",
          "created_at": "2023-06-18T13:29:44.000000Z",
          "updated_at": "2023-06-22T08:01:56.000000Z"
        },
        {
          "id": 11636,
          "slug": "video-background-remove-tutorial",
          "name": "Video background removal tutorial",
          "image": "https://blog.mymember.shop/wp-content/uploads/2023/06/how-to-remove-a-video-background.jpg",
          "thumbnail": "https://blog.mymember.shop/wp-content/uploads/2023/06/how-to-remove-a-video-background-386x217.jpg",
          "alt_text": "Video background removal tutorial",
          "created_at": "2023-06-18T12:44:02.000000Z",
          "updated_at": "2023-06-22T08:03:42.000000Z"
        },
        {
          "id": 11617,
          "slug": "screen-recording-tutorial",
          "name": "Learning how to record phone screen",
          "image": "https://blog.mymember.shop/wp-content/uploads/2023/06/how-to-video-recording-of-the-phone-screen-with-sound.jpg",
          "thumbnail": "https://blog.mymember.shop/wp-content/uploads/2023/06/how-to-video-recording-of-the-phone-screen-with-sound-386x217.jpg",
          "alt_text": "Learning how to record phone screen",
          "created_at": "2023-06-17T08:18:47.000000Z",
          "updated_at": "2023-06-22T08:05:30.000000Z"
        },
        {
          "id": 11602,
          "slug": "آموزش-دیلیت-اکانت-اسنپ-چت",
          "name": "آموزش دیلیت اکانت اسنپ چت",
          "image": "https://blog.mymember.shop/wp-content/uploads/2023/06/How-to-delete-my-Snapchat-account.jpg",
          "thumbnail": "https://blog.mymember.shop/wp-content/uploads/2023/06/How-to-delete-my-Snapchat-account-386x217.jpg",
          "alt_text": "آموزش دیلیت اکانت اسنپ چت",
          "created_at": "2023-06-17T07:02:49.000000Z",
          "updated_at": "2023-06-22T08:07:17.000000Z"
        },
        {
          "id": 11579,
          "slug": "add-font-to-phone-office-app",
          "name": "Learning how to add fonts to the phone office program",
          "image": "https://blog.mymember.shop/wp-content/uploads/2023/06/How-to-add-fonts-to-the-phone-office.jpg",
          "thumbnail": "https://blog.mymember.shop/wp-content/uploads/2023/06/How-to-add-fonts-to-the-phone-office-386x217.jpg",
          "alt_text": "Learning how to add fonts to the phone office program",
          "created_at": "2023-06-15T10:04:47.000000Z",
          "updated_at": "2023-06-22T08:09:12.000000Z"
        },
        {
          "id": 11566,
          "slug": "Nezdika-account-delete-training",
          "name": "Account deletion tutorial coming soon",
          "image": "https://blog.mymember.shop/wp-content/uploads/2023/06/how-to-delete-Nazdika-app-account.jpg",
          "thumbnail": "https://blog.mymember.shop/wp-content/uploads/2023/06/how-to-delete-Nazdika-app-account-386x217.jpg",
          "alt_text": "Account deletion tutorial coming soon",
          "created_at": "2023-06-15T09:14:37.000000Z",
          "updated_at": "2023-06-22T08:10:58.000000Z"
        },
        {
          "id": 11028,
          "slug": "game-legends-of-runeterra",
          "name": "game legends of Runeterra",
          "image": "https://blog.mymember.shop/wp-content/uploads/2023/05/LoR-Rotation-1.jpg",
          "thumbnail": "https://blog.mymember.shop/wp-content/uploads/2023/05/LoR-Rotation-1-386x193.jpg",
          "alt_text": "game legends of Runeterra",
          "created_at": "2023-05-31T09:23:24.000000Z",
          "updated_at": "2023-05-31T12:25:34.000000Z"
        },
        {
          "id": 11029,
          "slug": "delete-account-telegram",
          "name": "delete Telegram account",
          "image": "https://blog.mymember.shop/wp-content/uploads/2023/05/delete-account-telegram.jpg",
          "thumbnail": "https://blog.mymember.shop/wp-content/uploads/2023/05/delete-account-telegram-386x237.jpg",
          "alt_text": "delete Telegram account",
          "created_at": "2023-05-31T08:50:18.000000Z",
          "updated_at": "2023-05-31T08:50:18.000000Z"
        }
      ],
      "first_page_url": "/blog?page=1",
      "from": 1,
      "last_page": 13,
      "last_page_url": "/blog?page=13",
      "links": [
        {
          "url": null,
          "label": "&laquo; قبلی",
          "active": false
        },
        {
          "url": "/blog?page=1",
          "label": "1",
          "active": true
        },
        {
          "url": "/blog?page=2",
          "label": "2",
          "active": false
        },
        {
          "url": "/blog?page=3",
          "label": "3",
          "active": false
        },
        {
          "url": "/blog?page=4",
          "label": "4",
          "active": false
        },
        {
          "url": "/blog?page=5",
          "label": "5",
          "active": false
        },
        {
          "url": "/blog?page=6",
          "label": "6",
          "active": false
        },
        {
          "url": "/blog?page=7",
          "label": "7",
          "active": false
        },
        {
          "url": "/blog?page=8",
          "label": "8",
          "active": false
        },
        {
          "url": "/blog?page=9",
          "label": "9",
          "active": false
        },
        {
          "url": "/blog?page=10",
          "label": "10",
          "active": false
        },
        {
          "url": "/blog?page=11",
          "label": "11",
          "active": false
        },
        {
          "url": "/blog?page=12",
          "label": "12",
          "active": false
        },
        {
          "url": "/blog?page=13",
          "label": "13",
          "active": false
        },
        {
          "url": "/blog?page=2",
          "label": "بعدی &raquo;",
          "active": false
        }
      ],
      "next_page_url": "/blog?page=2",
      "path": "/blog",
      "per_page": 48,
      "prev_page_url": null,
      "to": 48,
      "total": "580"
    },
    "links": [
      {
        "id": 12,
        "content": "خرید کامنت",
        "href": "/%D8%AE%D8%B1%DB%8C%D8%AF-%DA%A9%D8%A7%D9%85%D9%86%D8%AA-%D8%A7%DB%8C%D9%86%D8%B3%D8%AA%D8%A7%DA%AF%D8%B1%D8%A7%D9%85",
        "sort": 0,
        "created_at": null,
        "updated_at": null
      },
      {
        "id": 26,
        "content": "اشتراک پرمیوم تلگرام",
        "href": "https://mymember.shop/%D9%BE%D8%B1%D9%85%DB%8C%D9%88%D9%85-%D8%AA%D9%84%DA%AF%D8%B1%D8%A7%D9%85",
        "sort": 0,
        "created_at": "2023-06-22T13:18:59.000000Z",
        "updated_at": "2023-06-22T13:18:59.000000Z"
      },
      {
        "id": 25,
        "content": "تبلیغات در بله",
        "href": "https://mymember.shop/%D8%AA%D8%A8%D9%84%DB%8C%D8%BA%D8%A7%D8%AA-%D8%AF%D8%B1-%D8%A8%D9%84%D9%87",
        "sort": 0,
        "created_at": "2023-01-10T22:50:34.000000Z",
        "updated_at": "2023-01-10T22:50:34.000000Z"
      },
      {
        "id": 24,
        "content": "خرید شماره مجازی",
        "href": "https://mymember.shop/%D8%B4%D9%85%D8%A7%D8%B1%D9%87-%D9%85%D8%AC%D8%A7%D8%B2%DB%8C",
        "sort": 0,
        "created_at": "2023-01-07T11:43:02.000000Z",
        "updated_at": "2023-01-07T11:43:02.000000Z"
      },
      {
        "id": 23,
        "content": "خرید شماره مجازی واتس اپ",
        "href": "https://mymember.shop/%D8%B4%D9%85%D8%A7%D8%B1%D9%87-%D9%85%D8%AC%D8%A7%D8%B2%DB%8C-%D9%88%D8%A7%D8%AA%D8%B3-%D8%A7%D9%BE",
        "sort": 0,
        "created_at": "2022-12-26T16:22:15.000000Z",
        "updated_at": "2022-12-26T16:22:15.000000Z"
      },
      {
        "id": 22,
        "content": "خرید شماره مجازی تلگرام",
        "href": "https://mymember.shop/%D8%B4%D9%85%D8%A7%D8%B1%D9%87-%D9%85%D8%AC%D8%A7%D8%B2%DB%8C-%D8%AA%D9%84%DA%AF%D8%B1%D8%A7%D9%85",
        "sort": 0,
        "created_at": "2022-12-26T16:21:59.000000Z",
        "updated_at": "2022-12-26T16:21:59.000000Z"
      },
      {
        "id": 18,
        "content": "تبلیغات در اینستاگرام",
        "href": "https://namadin.co/",
        "sort": 0,
        "created_at": null,
        "updated_at": "2023-01-16T12:55:04.000000Z"
      },
      {
        "id": 17,
        "content": "خرید لایک توییتر",
        "href": "/twitter-like",
        "sort": 0,
        "created_at": null,
        "updated_at": null
      },
      {
        "id": 16,
        "content": "خرید فالوور توییتر",
        "href": "/twitter-follower",
        "sort": 0,
        "created_at": null,
        "updated_at": null
      },
      {
        "id": 15,
        "content": "خرید کانال تلگرام",
        "href": "https://mymember.shop/%D8%AE%D8%B1%DB%8C%D8%AF-%DA%A9%D8%A7%D9%86%D8%A7%D9%84-%D8%AA%D9%84%DA%AF%D8%B1%D8%A7%D9%85",
        "sort": 0,
        "created_at": null,
        "updated_at": "2023-01-05T14:36:47.000000Z"
      },
      {
        "id": 14,
        "content": "تبلیغات در روبیکا",
        "href": "https://mymember.shop/%D8%AA%D8%A8%D9%84%DB%8C%D8%BA%D8%A7%D8%AA-%D8%AF%D8%B1-%D8%B1%D9%88%D8%A8%DB%8C%DA%A9%D8%A7",
        "sort": 0,
        "created_at": null,
        "updated_at": "2023-01-12T20:58:29.000000Z"
      },
      {
        "id": 13,
        "content": "خرید فالوور ارزان",
        "href": "/%D8%AE%D8%B1%DB%8C%D8%AF-%D9%81%D8%A7%D9%84%D9%88%D9%88%D8%B1-%D9%81%DB%8C%DA%A9",
        "sort": 0,
        "created_at": null,
        "updated_at": null
      },
      {
        "id": 1,
        "content": "خرید ممبر پروکسی",
        "href": "/%D8%AE%D8%B1%DB%8C%D8%AF-%D9%85%D9%85%D8%A8%D8%B1-%D9%BE%D8%B1%D9%88%DA%A9%D8%B3%DB%8C-%D8%AA%D9%84%DA%AF%D8%B1%D8%A7%D9%85",
        "sort": 0,
        "created_at": null,
        "updated_at": null
      },
      {
        "id": 11,
        "content": "خرید فالوور ایرانی",
        "href": "/%D8%AE%D8%B1%DB%8C%D8%AF-%D9%81%D8%A7%D9%84%D9%88%D9%88%D8%B1-%D8%A7%DB%8C%D8%B1%D8%A7%D9%86%DB%8C-%D9%88%D8%A7%D9%82%D8%B9%DB%8C",
        "sort": 0,
        "created_at": null,
        "updated_at": null
      },
      {
        "id": 10,
        "content": "خرید ویو اینستا",
        "href": "/%D8%AE%D8%B1%DB%8C%D8%AF-%D9%88%DB%8C%D9%88-%D9%BE%D8%B3%D8%AA-%D8%A7%DB%8C%D9%86%D8%B3%D8%AA%D8%A7%DA%AF%D8%B1%D8%A7%D9%85",
        "sort": 0,
        "created_at": null,
        "updated_at": null
      },
      {
        "id": 9,
        "content": "خرید لایک اینستاگرام",
        "href": "/%D8%AE%D8%B1%DB%8C%D8%AF-%D9%84%D8%A7%DB%8C%DA%A9-%D8%A7%DB%8C%D9%86%D8%B3%D8%AA%D8%A7%DA%AF%D8%B1%D8%A7%D9%85",
        "sort": 0,
        "created_at": null,
        "updated_at": null
      },
      {
        "id": 8,
        "content": "مخفی کردن فالوور ها در اینستاگرام",
        "href": "/blog/%DA%86%DA%AF%D9%88%D9%86%D9%87-%D9%81%D8%A7%D9%84%D9%88%D9%88%D8%B1-%D8%A7%DB%8C%D9%86%D8%B3%D8%AA%D8%A7%DA%AF%D8%B1%D8%A7%D9%85-%D8%B1%D8%A7-%D9%82%D9%81%D9%84-%DA%A9%D9%86%DB%8C%D9%85",
        "sort": 0,
        "created_at": null,
        "updated_at": "2023-06-05T09:07:12.000000Z"
      },
      {
        "id": 7,
        "content": "خرید ممبر گروه",
        "href": "/%D8%AE%D8%B1%DB%8C%D8%AF-%D9%85%D9%85%D8%A8%D8%B1-%DA%AF%D8%B1%D9%88%D9%87",
        "sort": 0,
        "created_at": null,
        "updated_at": null
      },
      {
        "id": 6,
        "content": "خرید ممبر فیک",
        "href": "/%D8%AE%D8%B1%DB%8C%D8%AF-%D9%85%D9%85%D8%A8%D8%B1-%D9%81%DB%8C%DA%A9-%D8%AA%D9%84%DA%AF%D8%B1%D8%A7%D9%85",
        "sort": 0,
        "created_at": null,
        "updated_at": null
      },
      {
        "id": 5,
        "content": "ممبر گیر روبیکا",
        "href": "https://mymember.shop/%D8%B9%D8%B6%D9%88-%DA%AF%DB%8C%D8%B1-%D8%B1%D9%88%D8%A8%DB%8C%DA%A9%D8%A7",
        "sort": 0,
        "created_at": null,
        "updated_at": "2023-01-12T20:58:55.000000Z"
      },
      {
        "id": 4,
        "content": "خرید ممبر پاپ آپ",
        "href": "/%D8%AE%D8%B1%DB%8C%D8%AF-%D9%85%D9%85%D8%A8%D8%B1-%D9%BE%D8%A7%D9%BE-%D8%A2%D9%BE",
        "sort": 0,
        "created_at": null,
        "updated_at": null
      },
      {
        "id": 3,
        "content": "خرید ممبر پروکسی",
        "href": "/%D8%AE%D8%B1%DB%8C%D8%AF-%D9%85%D9%85%D8%A8%D8%B1-%D9%BE%D8%B1%D9%88%DA%A9%D8%B3%DB%8C-%D8%AA%D9%84%DA%AF%D8%B1%D8%A7%D9%85",
        "sort": 0,
        "created_at": null,
        "updated_at": null
      },
      {
        "id": 2,
        "content": "خرید ممبر واقعی تلگرام",
        "href": "/%D8%AE%D8%B1%DB%8C%D8%AF-%D9%85%D9%85%D8%A8%D8%B1-%D8%A7%D8%AC%D8%A8%D8%A7%D8%B1%DB%8C",
        "sort": 0,
        "created_at": null,
        "updated_at": null
      }
    ],
    "auth": {
      "user": null
    }
  },
  "url": "/blog",
  "version": "ed767a072e1c9a9dc34e57164b1a3eaffa"
}